<?xml version="1.0" encoding="utf-8"?>
<!-- Generator: Adobe Illustrator 16.0.4, SVG Export Plug-In . SVG Version: 6.00 Build 0)  -->
<!DOCTYPE svg PUBLIC "-//W3C//DTD SVG 1.1//EN" "http://www.w3.org/Graphics/SVG/1.1/DTD/svg11.dtd">
<svg version="1.1" id="Layer_2" xmlns="http://www.w3.org/2000/svg" xmlns:xlink="http://www.w3.org/1999/xlink" x="0px" y="0px"
	 width="72px" height="72px" viewBox="0 0 72 72" enable-background="new 0 0 72 72" xml:space="preserve">
<g>
	<path fill="#00C9FF" d="M14.293,25.018c-2.044-0.001-3.701,1.659-3.702,3.702l0.003,15.503c0,2.049,1.658,3.702,3.703,3.702
		s3.703-1.653,3.701-3.702V28.718C17.998,26.675,16.338,25.016,14.293,25.018 M44.148,11.095l2.584-4.718
		c0.138-0.247,0.047-0.561-0.203-0.7c-0.252-0.133-0.563-0.042-0.696,0.206l-2.608,4.768c-2.197-0.977-4.654-1.525-7.255-1.522
		c-2.593-0.002-5.05,0.544-7.237,1.516L26.119,5.89c-0.136-0.251-0.448-0.342-0.695-0.206c-0.251,0.135-0.343,0.45-0.204,0.696
		l2.585,4.715c-5.08,2.62-8.511,7.608-8.508,13.334l33.348-0.003C52.646,18.699,49.221,13.722,44.148,11.095 M28.384,18.387
		c-0.768-0.001-1.394-0.625-1.394-1.396c0-0.769,0.624-1.4,1.395-1.4c0.773,0,1.398,0.631,1.399,1.399
		C29.785,17.76,29.158,18.386,28.384,18.387 M43.568,18.384c-0.771,0.001-1.398-0.624-1.398-1.397
		c0.003-0.766,0.626-1.399,1.398-1.401c0.768,0.002,1.396,0.634,1.396,1.402C44.966,17.759,44.339,18.384,43.568,18.384
		 M19.433,25.716l0.005,24.026c-0.001,2.185,1.766,3.947,3.95,3.947l2.69,0.002l0.003,8.203c0,2.041,1.66,3.703,3.7,3.703
		c2.045,0,3.702-1.662,3.703-3.705l-0.002-8.203h4.999l0.002,8.203c0,2.041,1.66,3.703,3.701,3.701c2.045,0,3.703-1.662,3.703-3.703
		l-0.003-8.203l2.699-0.002c2.179,0.002,3.951-1.766,3.951-3.949l-0.005-24.025L19.433,25.716z M61.361,28.713
		c0-2.044-1.657-3.702-3.701-3.701c-2.044-0.002-3.701,1.658-3.7,3.703l0.002,15.503c0,2.046,1.656,3.7,3.702,3.702
		c2.044-0.002,3.699-1.656,3.699-3.704L61.361,28.713z"/>
</g>
</svg>
