<?xml version="1.0" encoding="utf-8"?>
<!-- Generator: Adobe Illustrator 16.0.4, SVG Export Plug-In . SVG Version: 6.00 Build 0)  -->
<!DOCTYPE svg PUBLIC "-//W3C//DTD SVG 1.1//EN" "http://www.w3.org/Graphics/SVG/1.1/DTD/svg11.dtd">
<svg version="1.1" id="HERE_x5F_Maps_x5F_marketplace"
	 xmlns="http://www.w3.org/2000/svg" xmlns:xlink="http://www.w3.org/1999/xlink" x="0px" y="0px" width="72px" height="72px"
	 viewBox="0 0 72 72" enable-background="new 0 0 72 72" xml:space="preserve">
<g id="_x33_00">
	<path fill="#FFFFFF" d="M35.998,10.496c14.06,0,25.499,11.44,25.499,25.501c0,14.06-11.438,25.499-25.499,25.499
		c-14.062,0-25.501-11.439-25.501-25.499C10.496,21.936,21.936,10.496,35.998,10.496 M35.998,5.996
		c-16.57,0-30.001,13.433-30.001,30.001c0,16.571,13.432,29.999,30.001,29.999s29.999-13.428,29.999-29.999
		C65.996,19.428,52.567,5.996,35.998,5.996L35.998,5.996z"/>
	<g>
		<path fill="#00C9FF" d="M20.465,20.464l12.502,18.563l18.562,12.501L39.027,32.965L20.465,20.464z M35.998,38.14
			c-1.184,0-2.143-0.959-2.143-2.143s0.959-2.143,2.143-2.143c1.183,0,2.143,0.959,2.143,2.143S37.181,38.14,35.998,38.14"/>
		<polygon fill="#FFFFFF" points="34.497,16.875 37.497,22.496 38.998,22.496 38.998,14.621 37.497,14.621 37.497,20.249 
			34.498,14.621 32.997,14.621 32.997,22.496 34.497,22.496 		"/>
	</g>
</g>
</svg>
