<?xml version="1.0" encoding="utf-8"?>
<!-- Generator: Adobe Illustrator 16.0.4, SVG Export Plug-In . SVG Version: 6.00 Build 0)  -->
<!DOCTYPE svg PUBLIC "-//W3C//DTD SVG 1.1//EN" "http://www.w3.org/Graphics/SVG/1.1/DTD/svg11.dtd">
<svg version="1.1" id="ICONS" xmlns="http://www.w3.org/2000/svg" xmlns:xlink="http://www.w3.org/1999/xlink" x="0px" y="0px"
	 width="72px" height="72px" viewBox="0 0 72 72" enable-background="new 0 0 72 72" xml:space="preserve">
<g id="Make_collection_private">
	<path fill="#FFFFFF" d="M58,26h-5v-3c0-9.389-7.611-17-17-17c-9.389,0-17,7.611-17,17v3h-5c-2.2,0-4,1.8-4,4v34c0,2.2,1.8,4,4,4h44
		c2.2,0,4-1.8,4-4V30C62,27.8,60.2,26,58,26z M39,47.191V54c0,1.657-1.343,3-3,3s-3-1.343-3-3v-6.809c-1.792-1.039-3-2.973-3-5.191
		c0-3.314,2.686-6,6-6c3.314,0,6,2.686,6,6C42,44.22,40.792,46.152,39,47.191z M47,26H25v-3c0-6.075,4.925-11,11-11s11,4.925,11,11
		V26z"/>
	<rect fill-opacity="0" width="72" height="72"/>
</g>
</svg>
