<?xml version="1.0" encoding="utf-8"?>
<!-- Generator: Adobe Illustrator 16.0.4, SVG Export Plug-In . SVG Version: 6.00 Build 0)  -->
<!DOCTYPE svg PUBLIC "-//W3C//DTD SVG 1.1//EN" "http://www.w3.org/Graphics/SVG/1.1/DTD/svg11.dtd">
<svg version="1.1" id="Layer_1" xmlns="http://www.w3.org/2000/svg" xmlns:xlink="http://www.w3.org/1999/xlink" x="0px" y="0px"
	 width="288px" height="72px" viewBox="0 0 288 72" enable-background="new 0 0 288 72" xml:space="preserve">
<g id="Layer_5">
	<g>
		<rect x="144" fill="#101521" fill-opacity="0" width="72" height="72"/>
		<g>
			<path fill="#32C5F4" d="M189.963,62.477l2.473-2.461c1.359-1.354,1.359-3.564,0.002-4.92l-19.061-18.824l19.038-19.367
				c1.36-1.354,1.36-3.569,0-4.922l-2.467-2.457c-1.359-1.354-3.583-1.354-4.941-0.001l-21.509,21.818
				c-0.002,0.003-0.006,0.005-0.01,0.007l-2.467,2.459c-0.51,0.507-0.83,1.136-0.959,1.796c-0.213,1.097,0.108,2.279,0.957,3.125
				l2.469,2.463c0.01,0.006,0.017,0.012,0.025,0.02l21.506,21.264C186.38,63.829,188.604,63.829,189.963,62.477z"/>
		</g>
	</g>
</g>
<g id="Layer_5_1_">
	<g>
		<rect x="216" fill="#101521" fill-opacity="0" width="72" height="72"/>
		<g>
			<path fill="#FFFFFF" d="M261.963,62.477l2.473-2.461c1.359-1.354,1.359-3.564,0.002-4.92l-19.061-18.824l19.038-19.367
				c1.36-1.354,1.36-3.569,0-4.922l-2.467-2.457c-1.359-1.354-3.583-1.354-4.941-0.001l-21.509,21.818
				c-0.002,0.003-0.006,0.005-0.01,0.007l-2.467,2.459c-0.51,0.507-0.83,1.136-0.959,1.796c-0.213,1.097,0.108,2.279,0.957,3.125
				l2.469,2.463c0.01,0.006,0.017,0.012,0.025,0.02l21.506,21.264C258.38,63.829,260.604,63.829,261.963,62.477z"/>
		</g>
	</g>
</g>
<g id="Layer_5_2_">
	<g>
		<rect fill="#101521" fill-opacity="0" width="72" height="72"/>
		<g>
			<path fill="#32C5F4" d="M22.492,62.477l-2.473-2.461c-1.359-1.354-1.359-3.564-0.001-4.92l19.06-18.824L20.04,16.905
				c-1.36-1.354-1.36-3.569,0-4.922l2.467-2.457c1.359-1.354,3.583-1.354,4.941-0.001l21.509,21.819
				c0.002,0.003,0.006,0.005,0.009,0.007l2.468,2.459c0.51,0.507,0.83,1.136,0.959,1.796c0.213,1.097-0.106,2.279-0.957,3.126
				l-2.47,2.461c-0.009,0.007-0.016,0.013-0.024,0.021L27.435,62.477C26.075,63.829,23.852,63.829,22.492,62.477z"/>
		</g>
	</g>
</g>
<g id="Layer_5_3_">
	<g>
		<rect x="72" fill="#101521" fill-opacity="0" width="72" height="72"/>
		<g>
			<path fill="#FFFFFF" d="M94.492,62.477l-2.473-2.461c-1.359-1.354-1.359-3.564-0.001-4.92l19.06-18.824L92.04,16.905
				c-1.36-1.354-1.36-3.569,0-4.922l2.467-2.457c1.359-1.354,3.583-1.354,4.941-0.001l21.509,21.819
				c0.002,0.003,0.006,0.005,0.009,0.007l2.468,2.459c0.51,0.507,0.83,1.136,0.959,1.796c0.213,1.097-0.106,2.279-0.957,3.126
				l-2.47,2.461c-0.009,0.007-0.016,0.013-0.024,0.021L99.435,62.477C98.075,63.829,95.852,63.829,94.492,62.477z"/>
		</g>
	</g>
</g>
</svg>
